[{
    "item_id": 1,
    "item_type": 6,
    "name": "Rune Box"
},
{
    "item_id": 2,
    "item_type": 6,
    "name": "Trial Hero Box (3 Days)"
},
{
    "item_id": 3,
    "item_type": 6,
    "name": "Trial Hero Skin Box (3 Days)"
},
{
    "item_id": 4,
    "item_type": 6,
    "name": "Red Rune Lv.1"
},
{
    "item_id": 5,
    "item_type": 6,
    "name": "Red Rune Lv.2"
},
{
    "item_id": 6,
    "item_type": 6,
    "name": "Red Rune Lv.3"
},
{
    "item_id": 7,
    "item_type": 6,
    "name": "Blue Rune Lv.1"
},
{
    "item_id": 8,
    "item_type": 6,
    "name": "Blue Rune Lv.2"
},
{
    "item_id": 9,
    "item_type": 6,
    "name": "Blue Rune Lv.3"
},
{
    "item_id": 10,
    "item_type": 6,
    "name": "Green Rune Lv.1"
},
{
    "item_id": 11,
    "item_type": 6,
    "name": "Green Rune Lv.2"
},
{
    "item_id": 12,
    "item_type": 6,
    "name": "Green Rune Lv.3"
},
{
    "item_id": 13,
    "item_type": 6,
    "name": "Yellow Rune Lv.1"
},
{
    "item_id": 14,
    "item_type": 6,
    "name": "Yellow Rune Lv.2"
},
{
    "item_id": 15,
    "item_type": 6,
    "name": "Yellow Rune Lv.3"
},
{
    "item_id": 17,
    "item_type": 6,
    "name": "Rune Box Lv. 1"
},
{
    "item_id": 18,
    "item_type": 6,
    "name": "Rune Box Lv. 2"
},
{
    "item_id": 19,
    "item_type": 6,
    "name": "Rune Box Lv. 3"
},
{
    "item_id": 20,
    "item_type": 6,
    "name": "Battle Reward"
},
{
    "item_id": 21,
    "item_type": 6,
    "name": "Ksatriya"
},
{
    "item_id": 22,
    "item_type": 6,
    "name": "Rune Box Lv. 4 - 5"
},
{
    "item_id": 23,
    "item_type": 6,
    "name": "Lotus Shop Ori Box"
},
{
    "item_id": 24,
    "item_type": 6,
    "name": "Gacha Top Up Bonus Box"
},
{
    "item_id": 25,
    "item_type": 6,
    "name": "Gacha Ori Box"
},
{
    "item_id": 26,
    "item_type": 6,
    "name": "Gacha Lotus Box"
},
{
    "item_id": 27,
    "item_type": 6,
    "name": "Gacha Random Item Box"
},
{
    "item_id": 28,
    "item_type": 6,
    "name": "Gacha Yantra Box"
},
{
    "item_id": 29,
    "item_type": 6,
    "name": "Rune Box Lv. 4"
},
{
    "item_id": 30,
    "item_type": 6,
    "name": "Rune Box Lv. 5"
},
{
    "item_id": 31,
    "item_type": 6,
    "name": "Gacha Ticket Box"
},
{
    "item_id": 32,
    "item_type": 6,
    "name": "Rune Box Lv. 6"
},
{
    "item_id": 301,
    "item_type": 6,
    "name": "Trial Skin Box Binara Event"
},
{
    "item_id": 302,
    "item_type": 6,
    "name": "Trial Skin Box 1 Hari"
},
{
    "item_id": 304,
    "item_type": 6,
    "name": "Trial Skin 7 Hari Featured"
},
{
    "item_id": 1000,
    "item_type": 6,
    "name": "Kotak Magic devArdenich"
},
{
    "item_id": 31,
    "item_type": 5,
    "name": "Voucher Gian"
},
{
    "item_id": 101,
    "item_type": 5,
    "name": "Double Gold 1 Win"
},
{
    "item_id": 102,
    "item_type": 5,
    "name": "Double Gold 4 Win"
},
{
    "item_id": 103,
    "item_type": 5,
    "name": "Double Gold 7 Win"
},
{
    "item_id": 104,
    "item_type": 5,
    "name": "Double Gold 10 Win"
},
{
    "item_id": 111,
    "item_type": 5,
    "name": "Double Gold 1 Day"
},
{
    "item_id": 112,
    "item_type": 5,
    "name": "Double Gold 4 Day"
},
{
    "item_id": 113,
    "item_type": 5,
    "name": "Double Gold 7 Day"
},
{
    "item_id": 114,
    "item_type": 5,
    "name": "Double Gold 3 Day"
},
{
    "item_id": 201,
    "item_type": 5,
    "name": "Double EXP Mastery 1 Win"
},
{
    "item_id": 202,
    "item_type": 5,
    "name": "Double EXP Mastery 4 Win"
},
{
    "item_id": 203,
    "item_type": 5,
    "name": "Double EXP Mastery 7 Win"
},
{
    "item_id": 204,
    "item_type": 5,
    "name": "Double EXP Mastery 10 Win"
},
{
    "item_id": 211,
    "item_type": 5,
    "name": "Double EXP Mastery 1 Day"
},
{
    "item_id": 212,
    "item_type": 5,
    "name": "Double EXP Mastery 3 Day"
},
{
    "item_id": 213,
    "item_type": 5,
    "name": "Double EXP Mastery 7 Day"
},
{
    "item_id": 1101,
    "item_type": 5,
    "name": "Global Chat"
},
{
    "item_id": 2033,
    "item_type": 5,
    "name": "Token Event Anniv"
},
{
    "item_id": 10101,
    "item_type": 5,
    "name": "Gacha Ticket"
},
{
    "item_id": 10102,
    "item_type": 5,
    "name": "Gacha Fragment"
},
{
    "item_id": 10201,
    "item_type": 5,
    "name": "Username Rename"
},
{
    "item_id": 10301,
    "item_type": 5,
    "name": "Guild Rename"
},
{
    "item_id": 10401,
    "item_type": 5,
    "name": "Guild License"
},
{
    "item_id": 90001,
    "item_type": 5,
    "name": "Expired Ticket"
},
{
    "item_id": 90101,
    "item_type": 5,
    "name": "Lotto Ticket"
},
{
    "item_id": 90201,
    "item_type": 5,
    "name": "Discount Ticket Ksatriya 10%"
},
{
    "item_id": 90202,
    "item_type": 5,
    "name": "Discount Ticket Ksatriya 20%"
},
{
    "item_id": 90203,
    "item_type": 5,
    "name": "Discount Ticket Ksatriya 30%"
},
{
    "item_id": 90301,
    "item_type": 5,
    "name": "Discount Ticket Ksatriya Skin 10%"
},
{
    "item_id": 90302,
    "item_type": 5,
    "name": "Discount Ticket Ksatriya Skin 20%"
},
{
    "item_id": 90303,
    "item_type": 5,
    "name": "Discount Ticket Ksatriya Skin 30%"
},
{
    "item_id": 90401,
    "item_type": 5,
    "name": "Discount Ticket Premium 10%"
},
{
    "item_id": 90402,
    "item_type": 5,
    "name": "Discount Ticket Premium 15%"
},
{
    "item_id": 90501,
    "item_type": 5,
    "name": "Top Up Bonus 10%"
},
{
    "item_id": 90502,
    "item_type": 5,
    "name": "Top Up Bonus 20%"
},
{
    "item_id": 90503,
    "item_type": 5,
    "name": "Top Up Bonus 30%"
},
{
    "item_id": 100,
    "item_type": 4,
    "name": "Rune Wreck"
},
{
    "item_id": 200,
    "item_type": 4,
    "name": "Rune Enhancement"
},
{
    "item_id": 300,
    "item_type": 4,
    "name": "Rune Assault"
},
{
    "item_id": 400,
    "item_type": 4,
    "name": "Rune Mystify"
},
{
    "item_id": 1100,
    "item_type": 4,
    "name": "Rune Vigor"
},
{
    "item_id": 1200,
    "item_type": 4,
    "name": "Rune Effervescent"
},
{
    "item_id": 1300,
    "item_type": 4,
    "name": "Rune Bulwark"
},
{
    "item_id": 1400,
    "item_type": 4,
    "name": "Rune Fortification"
},
{
    "item_id": 1500,
    "item_type": 4,
    "name": "Rune Convalesce"
},
{
    "item_id": 1600,
    "item_type": 4,
    "name": "Rune Invigorate"
},
{
    "item_id": 2100,
    "item_type": 4,
    "name": "Rune Brisk"
},
{
    "item_id": 2200,
    "item_type": 4,
    "name": "Rune Swift"
},
{
    "item_id": 2300,
    "item_type": 4,
    "name": "Rune Dexterity"
},
{
    "item_id": 3100,
    "item_type": 4,
    "name": "Rune Prepetrator"
},
{
    "item_id": 3200,
    "item_type": 4,
    "name": "Rune Swindler"
},
{
    "item_id": 3300,
    "item_type": 4,
    "name": "Rune Extortioner"
},
{
    "item_id": 9010,
    "item_type": 4,
    "name": "Rune Lyncher"
},
{
    "item_id": 9020,
    "item_type": 4,
    "name": "Rune Benevolent"
},
{
    "item_id": 9030,
    "item_type": 4,
    "name": "Rune Thievery"
},
{
    "item_id": 9040,
    "item_type": 4,
    "name": "Rune Huntsman"
},
{
    "item_id": 9050,
    "item_type": 4,
    "name": "Rune Panoply"
},
{
    "item_id": 9060,
    "item_type": 4,
    "name": "Rune Lilt"
},
{
    "item_id": 9070,
    "item_type": 4,
    "name": "Rune Smaragdine"
},
{
    "item_id": 9080,
    "item_type": 4,
    "name": "Rune Ephemeral"
},
{
    "item_id": 9090,
    "item_type": 4,
    "name": "Rune Ataraxia"
},
{
    "item_id": 9100,
    "item_type": 4,
    "name": "Rune Furtive"
},
{
    "item_id": 9110,
    "item_type": 4,
    "name": "Rune Fugacious"
},
{
    "item_id": 9120,
    "item_type": 4,
    "name": "Rune Efflorescence"
},
{
    "item_id": 9130,
    "item_type": 4,
    "name": "Rune Tempestuous"
},
{
    "item_id": 9140,
    "item_type": 4,
    "name": "Rune Pyrrhic"
},
{
    "item_id": 9150,
    "item_type": 4,
    "name": "Rune Summery"
},
{
    "item_id": 0,
    "item_type": 11,
    "name": "Frame None"
},
{
    "item_id": 1,
    "item_type": 11,
    "name": "Frame Pre-Register"
},
{
    "item_id": 2,
    "item_type": 11,
    "name": "Frame 2020 Independence Day"
},
{
    "item_id": 3,
    "item_type": 11,
    "name": "Frame 1 Million Downloads"
},
{
    "item_id": 4,
    "item_type": 11,
    "name": "Frame New Year 2021"
},
{
    "item_id": 5,
    "item_type": 11,
    "name": "Frame 1st Anniversary"
},
{
    "item_id": 6,
    "item_type": 11,
    "name": "Frame Ramadhan 1442 Hijri"
},
{
    "item_id": 7,
    "item_type": 11,
    "name": "Frame 2021 Independence Day"
},
{
    "item_id": 10001,
    "item_type": 11,
    "name": "Frame Rank I Ardarathi"
},
{
    "item_id": 10002,
    "item_type": 11,
    "name": "Frame Rank II Rathi"
},
{
    "item_id": 10003,
    "item_type": 11,
    "name": "Frame Rank III Ekarathi"
},
{
    "item_id": 10004,
    "item_type": 11,
    "name": "Frame Rank IV Atirathi"
},
{
    "item_id": 10005,
    "item_type": 11,
    "name": "Frame Rank V Maharathi"
},
{
    "item_id": 10006,
    "item_type": 11,
    "name": "Frame Rank VI Atimaharathi"
},
{
    "item_id": 10007,
    "item_type": 11,
    "name": "Frame Rank VII Mahamaharathi"
},
{
    "item_id": 99999,
    "item_type": 11,
    "name": "Frame Developer"
},
{
    "item_id": 0,
    "item_type": 12,
    "name": "Avatar None"
},
{
    "item_id": 1,
    "item_type": 12,
    "name": "Avatar Ilya"
},
{
    "item_id": 2,
    "item_type": 12,
    "name": "Avatar Sveta"
},
{
    "item_id": 3,
    "item_type": 12,
    "name": "Avatar Sena"
},
{
    "item_id": 4,
    "item_type": 12,
    "name": "Avatar Maesh"
},
{
    "item_id": 5,
    "item_type": 12,
    "name": "Avatar Myluta"
},
{
    "item_id": 6,
    "item_type": 12,
    "name": "Avatar Nisha"
},
{
    "item_id": 7,
    "item_type": 12,
    "name": "Avatar Jinno"
},
{
    "item_id": 8,
    "item_type": 12,
    "name": "Avatar Neera"
},
{
    "item_id": 9,
    "item_type": 12,
    "name": "Avatar Nala"
},
{
    "item_id": 10,
    "item_type": 12,
    "name": "Avatar Sabara"
},
{
    "item_id": 11,
    "item_type": 12,
    "name": "Avatar H'rtal"
},
{
    "item_id": 12,
    "item_type": 12,
    "name": "Avatar Skar"
},
{
    "item_id": 13,
    "item_type": 12,
    "name": "Avatar Haya"
},
{
    "item_id": 14,
    "item_type": 12,
    "name": "Avatar Nada"
},
{
    "item_id": 15,
    "item_type": 12,
    "name": "Avatar Saira"
},
{
    "item_id": 16,
    "item_type": 12,
    "name": "Avatar Handaru"
},
{
    "item_id": 17,
    "item_type": 12,
    "name": "Avatar Vijaya"
},
{
    "item_id": 18,
    "item_type": 12,
    "name": "Avatar Tara"
},
{
    "item_id": 19,
    "item_type": 12,
    "name": "Avatar Kanta"
},
{
    "item_id": 20,
    "item_type": 12,
    "name": "Avatar Rajapatni"
},
{
    "item_id": 21,
    "item_type": 12,
    "name": "Avatar Tarja"
},
{
    "item_id": 22,
    "item_type": 12,
    "name": "Avatar Binara"
},
{
    "item_id": 23,
    "item_type": 12,
    "name": "Avatar T'Pala"
},
{
    "item_id": 24,
    "item_type": 12,
    "name": "Avatar Khage"
},
{
    "item_id": 26,
    "item_type": 12,
    "name": "Avatar Guning"
},
{
    "item_id": 27,
    "item_type": 12,
    "name": "Avatar Nio"
},
{
    "item_id": 28,
    "item_type": 12,
    "name": "Avatar Vyana"
},
{
    "item_id": 29,
    "item_type": 12,
    "name": "Avatar Candravasi"
},
{
    "item_id": 1000,
    "item_type": 12,
    "name": "Avatar KPT"
},
{
    "item_id": 1,
    "item_type": 2,
    "name": "Ilya"
},
{
    "item_id": 3,
    "item_type": 2,
    "name": "Sena"
},
{
    "item_id": 4,
    "item_type": 2,
    "name": "Ma'esh"
},
{
    "item_id": 6,
    "item_type": 2,
    "name": "Nisha"
},
{
    "item_id": 7,
    "item_type": 2,
    "name": "Jinno"
},
{
    "item_id": 8,
    "item_type": 2,
    "name": "Neera"
},
{
    "item_id": 9,
    "item_type": 2,
    "name": "Nala"
},
{
    "item_id": 10,
    "item_type": 2,
    "name": "Sabara"
},
{
    "item_id": 11,
    "item_type": 2,
    "name": "H'rtal"
},
{
    "item_id": 12,
    "item_type": 2,
    "name": "Skar"
},
{
    "item_id": 13,
    "item_type": 2,
    "name": "Haya"
},
{
    "item_id": 14,
    "item_type": 2,
    "name": "Nada"
},
{
    "item_id": 15,
    "item_type": 2,
    "name": "Saira"
},
{
    "item_id": 16,
    "item_type": 2,
    "name": "Handaru"
},
{
    "item_id": 17,
    "item_type": 2,
    "name": "Vijaya"
},
{
    "item_id": 902,
    "item_type": 2,
    "name": "GIA (Old Data)"
},
{
    "item_id": 301,
    "item_type": 3,
    "name": "Sena - Arbalest Armor"
},
{
    "item_id": 601,
    "item_type": 3,
    "name": "[TESTER] Nisha - Thunder Phantom"
},
{
    "item_id": 801,
    "item_type": 3,
    "name": "[TESTER] Neera - Guardian of Manthana"
},
{
    "item_id": 1201,
    "item_type": 3,
    "name": "Skar - Divine Warlord"
},
{
    "item_id": 19,
    "item_type": 2,
    "name": "Kanta"
},
{
    "item_id": 20,
    "item_type": 2,
    "name": "Rajapatni"
},
{
    "item_id": 101,
    "item_type": 3,
    "name": "[TESTER] Ilya - Yanaka"
},
{
    "item_id": 2001,
    "item_type": 3,
    "name": "Rajapatni - Singharajni"
},
{
    "item_id": 1701,
    "item_type": 3,
    "name": "Vijaya - Battle of Kudadu"
},
{
    "item_id": 1601,
    "item_type": 3,
    "name": "Handaru - Alighted Asura"
},
{
    "item_id": 402,
    "item_type": 3,
    "name": "Ma'esh - Eternal Anarchy"
},
{
    "item_id": 701,
    "item_type": 3,
    "name": "Jinno - Patih Mada"
},
{
    "item_id": 23,
    "item_type": 2,
    "name": "T'pala"
},
{
    "item_id": 302,
    "item_type": 3,
    "name": "Sena - Homeroom Teacher"
},
{
    "item_id": 22,
    "item_type": 2,
    "name": "Binara"
},
{
    "item_id": 21,
    "item_type": 2,
    "name": "Tarja"
},
{
    "item_id": 902,
    "item_type": 3,
    "name": "Nala - Lady Jock"
},
{
    "item_id": 1101,
    "item_type": 3,
    "name": "[TESTER] H'rtal - Smoketack Outburst"
},
{
    "item_id": 1102,
    "item_type": 3,
    "name": "H'rtal - Endless Angst"
},
{
    "item_id": 1001,
    "item_type": 3,
    "name": "Sabara - Cerberus"
},
{
    "item_id": 1702,
    "item_type": 3,
    "name": "Vijaya - Krtarajasa"
},
{
    "item_id": 26,
    "item_type": 2,
    "name": "Guning"
},
{
    "item_id": 27,
    "item_type": 2,
    "name": "Nio"
},
{
    "item_id": 1,
    "item_type": 14,
    "name": "VHN001"
},
{
    "item_id": 2,
    "item_type": 14,
    "name": "VHN002"
},
{
    "item_id": 28,
    "item_type": 2,
    "name": "Vyana"
},
{
    "item_id": 18,
    "item_type": 2,
    "name": "Tara"
},
{
    "item_id": 1302,
    "item_type": 3,
    "name": "Haya - Party Wrecker"
},
{
    "item_id": 2601,
    "item_type": 3,
    "name": "[TESTER] SKIN KSA 26"
},
{
    "item_id": 5,
    "item_type": 2,
    "name": "Myluta"
},
{
    "item_id": 29,
    "item_type": 2,
    "name": "Candravasi"
},
{
    "item_id": 29001,
    "item_type": 14,
    "name": "VHNK029_01"
},
{
    "item_id": 24,
    "item_type": 2,
    "name": "Khage"
},
{
    "item_id": 24001,
    "item_type": 14,
    "name": "VHNK029_01"
},
{
    "item_id": 901,
    "item_type": 2,
    "name": "Barda - Si Buta"
},
{
    "item_id": 1903,
    "item_type": 3,
    "name": "[TESTER] Kanta - Knightly Trip"
},
{
    "item_id": 1401,
    "item_type": 3,
    "name": "[TESTER] Nada - Serene Melody"
},
{
    "item_id": 602,
    "item_type": 3,
    "name": "[TESTER] Nisha - Badhayan Nyandi"
},
{
    "item_id": 901001,
    "item_type": 14,
    "name": "VHNK901_01"
},
{
    "item_id": 2802,
    "item_type": 3,
    "name": "Vyana - Jinan"
},
{
    "item_id": 901,
    "item_type": 3,
    "name": "[TESTER] SKIN 9_01"
},
{
    "item_id": 2702,
    "item_type": 3,
    "name": "[TESTER] SKIN27_02"
},
{
    "item_id": 401,
    "item_type": 3,
    "name": "[TESTER] SKIN 4_01"
}]